\relax 
\@setckpt{aGeo_lA.Kugelvolumen_Rotationskörper}{
\setcounter{page}{3}
\setcounter{equation}{0}
\setcounter{enumi}{0}
\setcounter{enumii}{0}
\setcounter{enumiii}{0}
\setcounter{enumiv}{0}
\setcounter{footnote}{0}
\setcounter{mpfootnote}{0}
\setcounter{part}{0}
\setcounter{section}{0}
\setcounter{subsection}{0}
\setcounter{subsubsection}{0}
\setcounter{paragraph}{0}
\setcounter{subparagraph}{0}
\setcounter{figure}{0}
\setcounter{table}{1}
\setcounter{parentequation}{0}
\setcounter{LT@tables}{1}
\setcounter{LT@chunks}{1}
\setcounter{su@anzahl}{0}
\setcounter{DTLrowi}{7}
\setcounter{DTLrowii}{0}
\setcounter{DTLrowiii}{0}
\setcounter{DTLrow}{1}
}
